PID/Verilog-PID-Controller-main/PID_controller/PID_controller.sim/sim_1/behav/xsim/dump.vcd
$date
   Sun Oct 22 15:12:23 2023
$end
$version
  2020.2
$end
$timescale
  1ps
$end
$scope module pid_tb $end
$var reg 1 ! clk $end
$var reg 1 " rst_n $end
$var reg 16 # setpoint [15:0] $end
$var reg 16 $ feedback [15:0] $end
$var reg 16 % Kp [15:0] $end
$var reg 16 & Ki [15:0] $end
$var reg 16 ' Kd [15:0] $end
$var reg 16 ( clk_prescaler [15:0] $end
$var wire 16 ) control_signal [15:0] $end
$scope module DUT $end
$var wire 1 * clk $end
$var wire 1 + rst_n $end
$var wire 16 , setpoint [15:0] $end
$var wire 16 - feedback [15:0] $end
$var wire 16 . Kp [15:0] $end
$var wire 16 / Ki [15:0] $end
$var wire 16 0 Kd [15:0] $end
$var wire 16 1 clk_prescaler [15:0] $end
$var reg 16 2 control_signal [15:0] $end
$var reg 16 3 error [15:0] $end
$var reg 16 4 prev_error [15:0] $end
$var reg 32 5 integral [31:0] $end
$var reg 16 6 derivative [15:0] $end
$var reg 16 7 clk_divider [15:0] $end
$var reg 1 8 sampling_flag $end
$upscope $end
$upscope $end
$enddefinitions $end
#0
$dumpvars
0!
0"
b110010 #
b0 $
b101 %
b1 &
b0 '
b1 (
bx )
0*
0+
b110010 ,
b0 -
b101 .
b1 /
b0 0
b1 1
bx 2
b0 3
b0 4
b0 5
b0 6
b0 7
08
$end
#1000
1!
1*
b0 7
#2000
0!
0*
#3000
1!
1*
b0 7
#4000
0!
0*
#5000
1!
1*
b0 7
#6000
0!
0*
#7000
1!
1*
b0 7
#8000
0!
0*
#9000
1!
1*
b0 7
#10000
0!
0*
#11000
1!
1*
b0 7
#12000
0!
0*
#13000
1!
1*
b0 7
#14000
0!
0*
#15000
1!
1*
b0 7
#16000
0!
0*
#17000
1!
1*
b0 7
#18000
0!
0*
#19000
1!
1*
b0 7
#20000
0!
1"
0*
1+
#21000
1!
1*
b1 7
08
#22000
0!
0*
#23000
1!
1*
b0 7
18
#24000
0!
0*
#25000
1!
b0 )
1*
b0 2
b110010 3
b0 4
b0 5
b0 6
b1 7
08
#26000
0!
0*
#27000
1!
1*
b0 7
18
#28000
0!
0*
#29000
1!
b11111010 )
1*
b11111010 2
b110010 3
b110010 4
b110010 5
b0 6
b1 7
08
#30000
0!
0*
#31000
1!
1*
b0 7
18
#32000
0!
0*
#33000
1!
1*
b11111010 2
b110010 3
b110010 4
b1100100 5
b0 6
b1 7
08
#34000
0!
0*
#35000
1!
1*
b0 7
18
#36000
0!
0*
#37000
1!
1*
b11111010 2
b110010 3
b110010 4
b10010110 5
b0 6
b1 7
08
#38000
0!
0*
#39000
1!
1*
b0 7
18
#40000
0!
0*
#41000
1!
1*
b11111010 2
b110010 3
b110010 4
b11001000 5
b0 6
b1 7
08
#42000
0!
0*
#43000
1!
1*
b0 7
18
#44000
0!
0*
#45000
1!
1*
b11111010 2
b110010 3
b110010 4
b11111010 5
b0 6
b1 7
08
#46000
0!
0*
#47000
1!
1*
b0 7
18
#48000
0!
0*
#49000
1!
1*
b11111010 2
b110010 3
b110010 4
b100101100 5
b0 6
b1 7
08
#50000
0!
0*
#51000
1!
1*
b0 7
18
#52000
0!
0*
#53000
1!
1*
b11111010 2
b110010 3
b110010 4
b101011110 5
b0 6
b1 7
08
#54000
0!
0*
#55000
1!
1*
b0 7
18
#56000
0!
0*
#57000
1!
1*
b11111010 2
b110010 3
b110010 4
b110010000 5
b0 6
b1 7
08
#58000
0!
0*
#59000
1!
1*
b0 7
18
#60000
0!
0*
#61000
1!
1*
b11111010 2
b110010 3
b110010 4
b111000010 5
b0 6
b1 7
08
#62000
0!
0*
#63000
1!
1*
b0 7
18
#64000
0!
0*
#65000
1!
1*
b11111010 2
b110010 3
b110010 4
b111110100 5
b0 6
b1 7
08
#66000
0!
0*
#67000
1!
1*
b0 7
18
#68000
0!
0*
#69000
1!
1*
b11111010 2
b110010 3
b110010 4
b1000100110 5
b0 6
b1 7
08
#70000
0!
0*
#71000
1!
1*
b0 7
18
#72000
0!
0*
#73000
1!
1*
b11111010 2
b110010 3
b110010 4
b1001011000 5
b0 6
b1 7
08
#74000
0!
0*
#75000
1!
1*
b0 7
18
#76000
0!
0*
#77000
1!
1*
b11111010 2
b110010 3
b110010 4
b1010001010 5
b0 6
b1 7
08
#78000
0!
0*
#79000
1!
1*
b0 7
18
#80000
0!
0*
#81000
1!
1*
b11111010 2
b110010 3
b110010 4
b1010111100 5
b0 6
b1 7
08
#82000
0!
0*
#83000
1!
1*
b0 7
18
#84000
0!
0*
#85000
1!
1*
b11111010 2
b110010 3
b110010 4
b1011101110 5
b0 6
b1 7
08
#86000
0!
0*
#87000
1!
1*
b0 7
18
#88000
0!
0*
#89000
1!
1*
b11111010 2
b110010 3
b110010 4
b1100100000 5
b0 6
b1 7
08
#90000
0!
0*
#91000
1!
1*
b0 7
18
#92000
0!
0*
#93000
1!
1*
b11111010 2
b110010 3
b110010 4
b1101010010 5
b0 6
b1 7
08
#94000
0!
0*
#95000
1!
1*
b0 7
18
#96000
0!
0*
#97000
1!
1*
b11111010 2
b110010 3
b110010 4
b1110000100 5
b0 6
b1 7
08
#98000
0!
0*
#99000
1!
1*
b0 7
18
#100000
0!
0*
#101000
1!
1*
b11111010 2
b110010 3
b110010 4
b1110110110 5
b0 6
b1 7
08
#102000
0!
0*
#103000
1!
1*
b0 7
18
#104000
0!
0*
#105000
1!
1*
b11111010 2
b110010 3
b110010 4
b1111101000 5
b0 6
b1 7
08
#106000
0!
0*
#107000
1!
1*
b0 7
18
#108000
0!
0*
#109000
1!
1*
b11111010 2
b110010 3
b110010 4
b10000011010 5
b0 6
b1 7
08
#110000
0!
0*
#111000
1!
1*
b0 7
18
#112000
0!
0*
#113000
1!
1*
b11111010 2
b110010 3
b110010 4
b10001001100 5
b0 6
b1 7
08
#114000
0!
0*
#115000
1!
1*
b0 7
18
#116000
0!
0*
#117000
1!
1*
b11111010 2
b110010 3
b110010 4
b10001111110 5
b0 6
b1 7
08
#118000
0!
0*
#119000
1!
1*
b0 7
18
#120000
0!
0*
#121000
1!
1*
b11111010 2
b110010 3
b110010 4
b10010110000 5
b0 6
b1 7
08
#122000
0!
0*
#123000
1!
1*
b0 7
18
#124000
0!
0*
#125000
1!
1*
b11111010 2
b110010 3
b110010 4
b10011100010 5
b0 6
b1 7
08
#126000
0!
0*
#127000
1!
1*
b0 7
18
#128000
0!
0*
#129000
1!
1*
b11111010 2
b110010 3
b110010 4
b10100010100 5
b0 6
b1 7
08
#130000
0!
0*
#131000
1!
1*
b0 7
18
#132000
0!
0*
#133000
1!
1*
b11111010 2
b110010 3
b110010 4
b10101000110 5
b0 6
b1 7
08
#134000
0!
0*
#135000
1!
1*
b0 7
18
#136000
0!
0*
#137000
1!
1*
b11111010 2
b110010 3
b110010 4
b10101111000 5
b0 6
b1 7
08
#138000
0!
0*
#139000
1!
1*
b0 7
18
#140000
0!
0*
#141000
1!
1*
b11111010 2
b110010 3
b110010 4
b10110101010 5
b0 6
b1 7
08
#142000
0!
0*
#143000
1!
1*
b0 7
18
#144000
0!
0*
#145000
1!
1*
b11111010 2
b110010 3
b110010 4
b10111011100 5
b0 6
b1 7
08
#146000
0!
0*
#147000
1!
1*
b0 7
18
#148000
0!
0*
#149000
1!
1*
b11111010 2
b110010 3
b110010 4
b11000001110 5
b0 6
b1 7
08
#150000
0!
0*
#151000
1!
1*
b0 7
18
#152000
0!
0*
#153000
1!
1*
b11111010 2
b110010 3
b110010 4
b11001000000 5
b0 6
b1 7
08
#154000
0!
0*
#155000
1!
1*
b0 7
18
#156000
0!
0*
#157000
1!
1*
b11111010 2
b110010 3
b110010 4
b11001110010 5
b0 6
b1 7
08
#158000
0!
0*
#159000
1!
1*
b0 7
18
#160000
0!
0*
#161000
1!
1*
b11111010 2
b110010 3
b110010 4
b11010100100 5
b0 6
b1 7
08
#162000
0!
0*
#163000
1!
1*
b0 7
18
#164000
0!
0*
#165000
1!
1*
b11111010 2
b110010 3
b110010 4
b11011010110 5
b0 6
b1 7
08
#166000
0!
0*
#167000
1!
1*
b0 7
18
#168000
0!
0*
#169000
1!
1*
b11111010 2
b110010 3
b110010 4
b11100001000 5
b0 6
b1 7
08
#170000
0!
0*
#171000
1!
1*
b0 7
18
#172000
0!
0*
#173000
1!
1*
b11111010 2
b110010 3
b110010 4
b11100111010 5
b0 6
b1 7
08
#174000
0!
0*
#175000
1!
1*
b0 7
18
#176000
0!
0*
#177000
1!
1*
b11111010 2
b110010 3
b110010 4
b11101101100 5
b0 6
b1 7
08
#178000
0!
0*
#179000
1!
1*
b0 7
18
#180000
0!
0*
#181000
1!
1*
b11111010 2
b110010 3
b110010 4
b11110011110 5
b0 6
b1 7
08
#182000
0!
0*
#183000
1!
1*
b0 7
18
#184000
0!
0*
#185000
1!
1*
b11111010 2
b110010 3
b110010 4
b11111010000 5
b0 6
b1 7
08
#186000
0!
0*
#187000
1!
1*
b0 7
18
#188000
0!
0*
#189000
1!
1*
b11111010 2
b110010 3
b110010 4
b100000000010 5
b0 6
b1 7
08
#190000
0!
0*
#191000
1!
1*
b0 7
18
#192000
0!
0*
#193000
1!
1*
b11111010 2
b110010 3
b110010 4
b100000110100 5
b0 6
b1 7
08
#194000
0!
0*
#195000
1!
1*
b0 7
18
#196000
0!
0*
#197000
1!
1*
b11111010 2
b110010 3
b110010 4
b100001100110 5
b0 6
b1 7
08
#198000
0!
0*
#199000
1!
1*
b0 7
18
#200000
0!
b1 $
0*
b1 -
#201000
1!
1*
b11111010 2
b110001 3
b110010 4
b100010011000 5
b0 6
b1 7
08
#202000
0!
0*
#203000
1!
1*
b0 7
18
#204000
0!
0*
#205000
1!
b11110101 )
1*
b11110101 2
b110001 3
b110001 4
b100011001001 5
b0 6
b1 7
08
#206000
0!
0*
#207000
1!
1*
b0 7
18
#208000
0!
0*
#209000
1!
1*
b11110101 2
b110001 3
b110001 4
b100011111010 5
b0 6
b1 7
08
#210000
0!
0*
#211000
1!
1*
b0 7
18
#212000
0!
0*
#213000
1!
1*
b11110101 2
b110001 3
b110001 4
b100100101011 5
b0 6
b1 7
08
#214000
0!
0*
#215000
1!
1*
b0 7
18
#216000
0!
0*
#217000
1!
1*
b11110101 2
b110001 3
b110001 4
b100101011100 5
b0 6
b1 7
08
#218000
0!
0*
#219000
1!
1*
b0 7
18
#220000
0!
0*
#221000
1!
1*
b11110101 2
b110001 3
b110001 4
b100110001101 5
b0 6
b1 7
08
#222000
0!
0*
#223000
1!
1*
b0 7
18
#224000
0!
0*
#225000
1!
1*
b11110101 2
b110001 3
b110001 4
b100110111110 5
b0 6
b1 7
08
#226000
0!
0*
#227000
1!
1*
b0 7
18
#228000
0!
0*
#229000
1!
1*
b11110101 2
b110001 3
b110001 4
b100111101111 5
b0 6
b1 7
08
#230000
0!
0*
#231000
1!
1*
b0 7
18
#232000
0!
0*
#233000
1!
1*
b11110101 2
b110001 3
b110001 4
b101000100000 5
b0 6
b1 7
08
#234000
0!
0*
#235000
1!
1*
b0 7
18
#236000
0!
0*
#237000
1!
1*
b11110101 2
b110001 3
b110001 4
b101001010001 5
b0 6
b1 7
08
#238000
0!
0*
#239000
1!
1*
b0 7
18
#240000
0!
0*
#241000
1!
1*
b11110101 2
b110001 3
b110001 4
b101010000010 5
b0 6
b1 7
08
#242000
0!
0*
#243000
1!
1*
b0 7
18
#244000
0!
0*
#245000
1!
1*
b11110101 2
b110001 3
b110001 4
b101010110011 5
b0 6
b1 7
08
#246000
0!
0*
#247000
1!
1*
b0 7
18
#248000
0!
0*
#249000
1!
1*
b11110101 2
b110001 3
b110001 4
b101011100100 5
b0 6
b1 7
08
#250000
0!
0*
#251000
1!
1*
b0 7
18
#252000
0!
0*
#253000
1!
1*
b11110101 2
b110001 3
b110001 4
b101100010101 5
b0 6
b1 7
08
#254000
0!
0*
#255000
1!
1*
b0 7
18
#256000
0!
0*
#257000
1!
1*
b11110101 2
b110001 3
b110001 4
b101101000110 5
b0 6
b1 7
08
#258000
0!
0*
#259000
1!
1*
b0 7
18
#260000
0!
0*
#261000
1!
1*
b11110101 2
b110001 3
b110001 4
b101101110111 5
b0 6
b1 7
08
#262000
0!
0*
#263000
1!
1*
b0 7
18
#264000
0!
0*
#265000
1!
1*
b11110101 2
b110001 3
b110001 4
b101110101000 5
b0 6
b1 7
08
#266000
0!
0*
#267000
1!
1*
b0 7
18
#268000
0!
0*
#269000
1!
1*
b11110101 2
b110001 3
b110001 4
b101111011001 5
b0 6
b1 7
08
#270000
0!
0*
#271000
1!
1*
b0 7
18
#272000
0!
0*
#273000
1!
1*
b11110101 2
b110001 3
b110001 4
b110000001010 5
b0 6
b1 7
08
#274000
0!
0*
#275000
1!
1*
b0 7
18
#276000
0!
0*
#277000
1!
1*
b11110101 2
b110001 3
b110001 4
b110000111011 5
b0 6
b1 7
08
#278000
0!
0*
#279000
1!
1*
b0 7
18
#280000
0!
0*
#281000
1!
1*
b11110101 2
b110001 3
b110001 4
b110001101100 5
b0 6
b1 7
08
#282000
0!
0*
#283000
1!
1*
b0 7
18
#284000
0!
0*
#285000
1!
1*
b11110101 2
b110001 3
b110001 4
b110010011101 5
b0 6
b1 7
08
#286000
0!
0*
#287000
1!
1*
b0 7
18
#288000
0!
0*
#289000
1!
1*
b11110101 2
b110001 3
b110001 4
b110011001110 5
b0 6
b1 7
08
#290000
0!
0*
#291000
1!
1*
b0 7
18
#292000
0!
0*
#293000
1!
1*
b11110101 2
b110001 3
b110001 4
b110011111111 5
b0 6
b1 7
08
#294000
0!
0*
#295000
1!
1*
b0 7
18
#296000
0!
0*
#297000
1!
1*
b11110101 2
b110001 3
b110001 4
b110100110000 5
b0 6
b1 7
08
#298000
0!
0*
#299000
1!
1*
b0 7
18
#300000
0!
0*
#301000
1!
1*
b11110101 2
b110001 3
b110001 4
b110101100001 5
b0 6
b1 7
08
#302000
0!
0*
#303000
1!
1*
b0 7
18
#304000
0!
0*
#305000
1!
1*
b11110101 2
b110001 3
b110001 4
b110110010010 5
b0 6
b1 7
08
#306000
0!
0*
#307000
1!
1*
b0 7
18
#308000
0!
0*
#309000
1!
1*
b11110101 2
b110001 3
b110001 4
b110111000011 5
b0 6
b1 7
08
#310000
0!
0*
#311000
1!
1*
b0 7
18
#312000
0!
0*
#313000
1!
1*
b11110101 2
b110001 3
b110001 4
b110111110100 5
b0 6
b1 7
08
#314000
0!
0*
#315000
1!
1*
b0 7
18
#316000
0!
0*
#317000
1!
1*
b11110101 2
b110001 3
b110001 4
b111000100101 5
b0 6
b1 7
08
#318000
0!
0*
#319000
1!
1*
b0 7
18
#320000
0!
0*
#321000
1!
1*
b11110101 2
b110001 3
b110001 4
b111001010110 5
b0 6
b1 7
08
#322000
0!
0*
#323000
1!
1*
b0 7
18
#324000
0!
0*
#325000
1!
1*
b11110101 2
b110001 3
b110001 4
b111010000111 5
b0 6
b1 7
08
#326000
0!
0*
#327000
1!
1*
b0 7
18
#328000
0!
0*
#329000
1!
1*
b11110101 2
b110001 3
b110001 4
b111010111000 5
b0 6
b1 7
08
#330000
0!
0*
#331000
1!
1*
b0 7
18
#332000
0!
0*
#333000
1!
1*
b11110101 2
b110001 3
b110001 4
b111011101001 5
b0 6
b1 7
08
#334000
0!
0*
#335000
1!
1*
b0 7
18
#336000
0!
0*
#337000
1!
1*
b11110101 2
b110001 3
b110001 4
b111100011010 5
b0 6
b1 7
08
#338000
0!
0*
#339000
1!
1*
b0 7
18
#340000
0!
0*
#341000
1!
1*
b11110101 2
b110001 3
b110001 4
b111101001011 5
b0 6
b1 7
08
#342000
0!
0*
#343000
1!
1*
b0 7
18
#344000
0!
0*
#345000
1!
1*
b11110101 2
b110001 3
b110001 4
b111101111100 5
b0 6
b1 7
08
#346000
0!
0*
#347000
1!
1*
b0 7
18
#348000
0!
0*
#349000
1!
1*
b11110101 2
b110001 3
b110001 4
b111110101101 5
b0 6
b1 7
08
#350000
0!
0*
#351000
1!
1*
b0 7
18
#352000
0!
0*
#353000
1!
1*
b11110101 2
b110001 3
b110001 4
b111111011110 5
b0 6
b1 7
08
#354000
0!
0*
#355000
1!
1*
b0 7
18
#356000
0!
0*
#357000
1!
1*
b11110101 2
b110001 3
b110001 4
b1000000001111 5
b0 6
b1 7
08
#358000
0!
0*
#359000
1!
1*
b0 7
18
#360000
0!
0*
#361000
1!
1*
b11110101 2
b110001 3
b110001 4
b1000001000000 5
b0 6
b1 7
08
#362000
0!
0*
#363000
1!
1*
b0 7
18
#364000
0!
0*
#365000
1!
1*
b11110101 2
b110001 3
b110001 4
b1000001110001 5
b0 6
b1 7
08
#366000
0!
0*
#367000
1!
1*
b0 7
18
#368000
0!
0*
#369000
1!
1*
b11110101 2
b110001 3
b110001 4
b1000010100010 5
b0 6
b1 7
08
#370000
0!
0*
#371000
1!
1*
b0 7
18
#372000
0!
0*
#373000
1!
1*
b11110101 2
b110001 3
b110001 4
b1000011010011 5
b0 6
b1 7
08
#374000
0!
0*
#375000
1!
1*
b0 7
18
#376000
0!
0*
#377000
1!
1*
b11110101 2
b110001 3
b110001 4
b1000100000100 5
b0 6
b1 7
08
#378000
0!
0*
#379000
1!
1*
b0 7
18
#380000
0!
0*
#381000
1!
1*
b11110101 2
b110001 3
b110001 4
b1000100110101 5
b0 6
b1 7
08
#382000
0!
0*
#383000
1!
1*
b0 7
18
#384000
0!
0*
#385000
1!
1*
b11110101 2
b110001 3
b110001 4
b1000101100110 5
b0 6
b1 7
08
#386000
0!
0*
#387000
1!
1*
b0 7
18
#388000
0!
0*
#389000
1!
1*
b11110101 2
b110001 3
b110001 4
b1000110010111 5
b0 6
b1 7
08
#390000
0!
0*
#391000
1!
1*
b0 7
18
#392000
0!
0*
#393000
1!
1*
b11110101 2
b110001 3
b110001 4
b1000111001000 5
b0 6
b1 7
08
#394000
0!
0*
#395000
1!
1*
b0 7
18
#396000
0!
0*
#397000
1!
1*
b11110101 2
b110001 3
b110001 4
b1000111111001 5
b0 6
b1 7
08
#398000
0!
0*
#399000
1!
1*
b0 7
18
#400000
0!
b101 $
0*
b101 -
#401000
1!
1*
b11110101 2
b101101 3
b110001 4
b1001000101010 5
b0 6
b1 7
08
#402000
0!
0*
#403000
1!
1*
b0 7
18
#404000
0!
0*
#405000
1!
b11100001 )
1*
b11100001 2
b101101 3
b101101 4
b1001001010111 5
b0 6
b1 7
08
#406000
0!
0*
#407000
1!
1*
b0 7
18
#408000
0!
0*
#409000
1!
1*
b11100001 2
b101101 3
b101101 4
b1001010000100 5
b0 6
b1 7
08
#410000
0!
0*
#411000
1!
1*
b0 7
18
#412000
0!
0*
#413000
1!
1*
b11100001 2
b101101 3
b101101 4
b1001010110001 5
b0 6
b1 7
08
#414000
0!
0*
#415000
1!
1*
b0 7
18
#416000
0!
0*
#417000
1!
1*
b11100001 2
b101101 3
b101101 4
b1001011011110 5
b0 6
b1 7
08
#418000
0!
0*
#419000
1!
1*
b0 7
18
#420000
0!
0*
#421000
1!
1*
b11100001 2
b101101 3
b101101 4
b1001100001011 5
b0 6
b1 7
08
#422000
0!
0*
#423000
1!
1*
b0 7
18
#424000
0!
0*
#425000
1!
1*
b11100001 2
b101101 3
b101101 4
b1001100111000 5
b0 6
b1 7
08
#426000
0!
0*
#427000
1!
1*
b0 7
18
#428000
0!
0*
#429000
1!
1*
b11100001 2
b101101 3
b101101 4
b1001101100101 5
b0 6
b1 7
08
#430000
0!
0*
#431000
1!
1*
b0 7
18
#432000
0!
0*
#433000
1!
1*
b11100001 2
b101101 3
b101101 4
b1001110010010 5
b0 6
b1 7
08
#434000
0!
0*
#435000
1!
1*
b0 7
18
#436000
0!
0*
#437000
1!
1*
b11100001 2
b101101 3
b101101 4
b1001110111111 5
b0 6
b1 7
08
#438000
0!
0*
#439000
1!
1*
b0 7
18
#440000
0!
0*
#441000
1!
1*
b11100001 2
b101101 3
b101101 4
b1001111101100 5
b0 6
b1 7
08
#442000
0!
0*
#443000
1!
1*
b0 7
18
#444000
0!
0*
#445000
1!
1*
b11100001 2
b101101 3
b101101 4
b1010000011001 5
b0 6
b1 7
08
#446000
0!
0*
#447000
1!
1*
b0 7
18
#448000
0!
0*
#449000
1!
1*
b11100001 2
b101101 3
b101101 4
b1010001000110 5
b0 6
b1 7
08
#450000
0!
0*
#451000
1!
1*
b0 7
18
#452000
0!
0*
#453000
1!
1*
b11100001 2
b101101 3
b101101 4
b1010001110011 5
b0 6
b1 7
08
#454000
0!
0*
#455000
1!
1*
b0 7
18
#456000
0!
0*
#457000
1!
1*
b11100001 2
b101101 3
b101101 4
b1010010100000 5
b0 6
b1 7
08
#458000
0!
0*
#459000
1!
1*
b0 7
18
#460000
0!
0*
#461000
1!
1*
b11100001 2
b101101 3
b101101 4
b1010011001101 5
b0 6
b1 7
08
#462000
0!
0*
#463000
1!
1*
b0 7
18
#464000
0!
0*
#465000
1!
1*
b11100001 2
b101101 3
b101101 4
b1010011111010 5
b0 6
b1 7
08
#466000
0!
0*
#467000
1!
1*
b0 7
18
#468000
0!
0*
#469000
1!
1*
b11100001 2
b101101 3
b101101 4
b1010100100111 5
b0 6
b1 7
08
#470000
0!
0*
#471000
1!
1*
b0 7
18
#472000
0!
0*
#473000
1!
1*
b11100001 2
b101101 3
b101101 4
b1010101010100 5
b0 6
b1 7
08
#474000
0!
0*
#475000
1!
1*
b0 7
18
#476000
0!
0*
#477000
1!
1*
b11100001 2
b101101 3
b101101 4
b1010110000001 5
b0 6
b1 7
08
#478000
0!
0*
#479000
1!
1*
b0 7
18
#480000
0!
0*
#481000
1!
1*
b11100001 2
b101101 3
b101101 4
b1010110101110 5
b0 6
b1 7
08
#482000
0!
0*
#483000
1!
1*
b0 7
18
#484000
0!
0*
#485000
1!
1*
b11100001 2
b101101 3
b101101 4
b1010111011011 5
b0 6
b1 7
08
#486000
0!
0*
#487000
1!
1*
b0 7
18
#488000
0!
0*
#489000
1!
1*
b11100001 2
b101101 3
b101101 4
b1011000001000 5
b0 6
b1 7
08
#490000
0!
0*
#491000
1!
1*
b0 7
18
#492000
0!
0*
#493000
1!
1*
b11100001 2
b101101 3
b101101 4
b1011000110101 5
b0 6
b1 7
08
#494000
0!
0*
#495000
1!
1*
b0 7
18
#496000
0!
0*
#497000
1!
1*
b11100001 2
b101101 3
b101101 4
b1011001100010 5
b0 6
b1 7
08
#498000
0!
0*
#499000
1!
1*
b0 7
18
#500000
0!
0*
#501000
1!
1*
b11100001 2
b101101 3
b101101 4
b1011010001111 5
b0 6
b1 7
08
#502000
0!
0*
#503000
1!
1*
b0 7
18
#504000
0!
0*
#505000
1!
1*
b11100001 2
b101101 3
b101101 4
b1011010111100 5
b0 6
b1 7
08
#506000
0!
0*
#507000
1!
1*
b0 7
18
#508000
0!
0*
#509000
1!
1*
b11100001 2
b101101 3
b101101 4
b1011011101001 5
b0 6
b1 7
08
#510000
0!
0*
#511000
1!
1*
b0 7
18
#512000
0!
0*
#513000
1!
1*
b11100001 2
b101101 3
b101101 4
b1011100010110 5
b0 6
b1 7
08
#514000
0!
0*
#515000
1!
1*
b0 7
18
#516000
0!
0*
#517000
1!
1*
b11100001 2
b101101 3
b101101 4
b1011101000011 5
b0 6
b1 7
08
#518000
0!
0*
#519000
1!
1*
b0 7
18
#520000
0!
0*
#521000
1!
1*
b11100001 2
b101101 3
b101101 4
b1011101110000 5
b0 6
b1 7
08
#522000
0!
0*
#523000
1!
1*
b0 7
18
#524000
0!
0*
#525000
1!
1*
b11100001 2
b101101 3
b101101 4
b1011110011101 5
b0 6
b1 7
08
#526000
0!
0*
#527000
1!
1*
b0 7
18
#528000
0!
0*
#529000
1!
1*
b11100001 2
b101101 3
b101101 4
b1011111001010 5
b0 6
b1 7
08
#530000
0!
0*
#531000
1!
1*
b0 7
18
#532000
0!
0*
#533000
1!
1*
b11100001 2
b101101 3
b101101 4
b1011111110111 5
b0 6
b1 7
08
#534000
0!
0*
#535000
1!
1*
b0 7
18
#536000
0!
0*
#537000
1!
1*
b11100001 2
b101101 3
b101101 4
b1100000100100 5
b0 6
b1 7
08
#538000
0!
0*
#539000
1!
1*
b0 7
18
#540000
0!
0*
#541000
1!
1*
b11100001 2
b101101 3
b101101 4
b1100001010001 5
b0 6
b1 7
08
#542000
0!
0*
#543000
1!
1*
b0 7
18
#544000
0!
0*
#545000
1!
1*
b11100001 2
b101101 3
b101101 4
b1100001111110 5
b0 6
b1 7
08
#546000
0!
0*
#547000
1!
1*
b0 7
18
#548000
0!
0*
#549000
1!
1*
b11100001 2
b101101 3
b101101 4
b1100010101011 5
b0 6
b1 7
08
#550000
0!
0*
#551000
1!
1*
b0 7
18
#552000
0!
0*
#553000
1!
1*
b11100001 2
b101101 3
b101101 4
b1100011011000 5
b0 6
b1 7
08
#554000
0!
0*
#555000
1!
1*
b0 7
18
#556000
0!
0*
#557000
1!
1*
b11100001 2
b101101 3
b101101 4
b1100100000101 5
b0 6
b1 7
08
#558000
0!
0*
#559000
1!
1*
b0 7
18
#560000
0!
0*
#561000
1!
1*
b11100001 2
b101101 3
b101101 4
b1100100110010 5
b0 6
b1 7
08
#562000
0!
0*
#563000
1!
1*
b0 7
18
#564000
0!
0*
#565000
1!
1*
b11100001 2
b101101 3
b101101 4
b1100101011111 5
b0 6
b1 7
08
#566000
0!
0*
#567000
1!
1*
b0 7
18
#568000
0!
0*
#569000
1!
1*
b11100001 2
b101101 3
b101101 4
b1100110001100 5
b0 6
b1 7
08
#570000
0!
0*
#571000
1!
1*
b0 7
18
#572000
0!
0*
#573000
1!
1*
b11100001 2
b101101 3
b101101 4
b1100110111001 5
b0 6
b1 7
08
#574000
0!
0*
#575000
1!
1*
b0 7
18
#576000
0!
0*
#577000
1!
1*
b11100001 2
b101101 3
b101101 4
b1100111100110 5
b0 6
b1 7
08
#578000
0!
0*
#579000
1!
1*
b0 7
18
#580000
0!
0*
#581000
1!
1*
b11100001 2
b101101 3
b101101 4
b1101000010011 5
b0 6
b1 7
08
#582000
0!
0*
#583000
1!
1*
b0 7
18
#584000
0!
0*
#585000
1!
1*
b11100001 2
b101101 3
b101101 4
b1101001000000 5
b0 6
b1 7
08
#586000
0!
0*
#587000
1!
1*
b0 7
18
#588000
0!
0*
#589000
1!
1*
b11100001 2
b101101 3
b101101 4
b1101001101101 5
b0 6
b1 7
08
#590000
0!
0*
#591000
1!
1*
b0 7
18
#592000
0!
0*
#593000
1!
1*
b11100001 2
b101101 3
b101101 4
b1101010011010 5
b0 6
b1 7
08
#594000
0!
0*
#595000
1!
1*
b0 7
18
#596000
0!
0*
#597000
1!
1*
b11100001 2
b101101 3
b101101 4
b1101011000111 5
b0 6
b1 7
08
#598000
0!
0*
#599000
1!
1*
b0 7
18
#600000
0!
b1000 $
0*
b1000 -
#601000
1!
1*
b11100001 2
b101010 3
b101101 4
b1101011110100 5
b0 6
b1 7
08
#602000
0!
0*
#603000
1!
1*
b0 7
18
#604000
0!
0*
#605000
1!
b11010010 )
1*
b11010010 2
b101010 3
b101010 4
b1101100011110 5
b0 6
b1 7
08
#606000
0!
0*
#607000
1!
1*
b0 7
18
#608000
0!
0*
#609000
1!
1*
b11010010 2
b101010 3
b101010 4
b1101101001000 5
b0 6
b1 7
08
#610000
0!
0*
#611000
1!
1*
b0 7
18
#612000
0!
0*
#613000
1!
1*
b11010010 2
b101010 3
b101010 4
b1101101110010 5
b0 6
b1 7
08
#614000
0!
0*
#615000
1!
1*
b0 7
18
#616000
0!
0*
#617000
1!
1*
b11010010 2
b101010 3
b101010 4
b1101110011100 5
b0 6
b1 7
08
#618000
0!
0*
#619000
1!
1*
b0 7
18
#620000
0!
0*
#621000
1!
1*
b11010010 2
b101010 3
b101010 4
b1101111000110 5
b0 6
b1 7
08
#622000
0!
0*
#623000
1!
1*
b0 7
18
#624000
0!
0*
#625000
1!
1*
b11010010 2
b101010 3
b101010 4
b1101111110000 5
b0 6
b1 7
08
#626000
0!
0*
#627000
1!
1*
b0 7
18
#628000
0!
0*
#629000
1!
1*
b11010010 2
b101010 3
b101010 4
b1110000011010 5
b0 6
b1 7
08
#630000
0!
0*
#631000
1!
1*
b0 7
18
#632000
0!
0*
#633000
1!
1*
b11010010 2
b101010 3
b101010 4
b1110001000100 5
b0 6
b1 7
08
#634000
0!
0*
#635000
1!
1*
b0 7
18
#636000
0!
0*
#637000
1!
1*
b11010010 2
b101010 3
b101010 4
b1110001101110 5
b0 6
b1 7
08
#638000
0!
0*
#639000
1!
1*
b0 7
18
#640000
0!
0*
#641000
1!
1*
b11010010 2
b101010 3
b101010 4
b1110010011000 5
b0 6
b1 7
08
#642000
0!
0*
#643000
1!
1*
b0 7
18
#644000
0!
0*
#645000
1!
1*
b11010010 2
b101010 3
b101010 4
b1110011000010 5
b0 6
b1 7
08
#646000
0!
0*
#647000
1!
1*
b0 7
18
#648000
0!
0*
#649000
1!
1*
b11010010 2
b101010 3
b101010 4
b1110011101100 5
b0 6
b1 7
08
#650000
0!
0*
#651000
1!
1*
b0 7
18
#652000
0!
0*
#653000
1!
1*
b11010010 2
b101010 3
b101010 4
b1110100010110 5
b0 6
b1 7
08
#654000
0!
0*
#655000
1!
1*
b0 7
18
#656000
0!
0*
#657000
1!
1*
b11010010 2
b101010 3
b101010 4
b1110101000000 5
b0 6
b1 7
08
#658000
0!
0*
#659000
1!
1*
b0 7
18
#660000
0!
0*
#661000
1!
1*
b11010010 2
b101010 3
b101010 4
b1110101101010 5
b0 6
b1 7
08
#662000
0!
0*
#663000
1!
1*
b0 7
18
#664000
0!
0*
#665000
1!
1*
b11010010 2
b101010 3
b101010 4
b1110110010100 5
b0 6
b1 7
08
#666000
0!
0*
